{
  "pageNo" : 1,
  "offset" : 0,
  "totalCount" : 1167,
  "lastPage" : 117,
  "hasNext" : true,
  "pages" : [
    {
      "id" : 1775,
      "description" : "무료 각인 서비스\n\n이모티콘, 이름, 이니셜, 숫자를 조합한 각인으로 나만의 AirPods 만들기. 오직 Apple에서만.",
      "vendor_id" : 11,
      "issued_at" : "2023-02-03T00:00:00",
      "created_at" : "2023-02-03T00:00:00",
      "discounted_price" : 0,
      "vendorName" : "borysarang",
      "stock" : 1,
      "price" : 199000,
      "thumbnail" : "https://s3.ap-northeast-2.amazonaws.com/media.yagom-academy.kr/training-resources/11/20230203/dba78af0a3bd11edbe1007ad79a78491_thumb.png",
      "currency" : "KRW",
      "name" : "AirPods(2세대)",
      "bargain_price" : 199000
    },
    {
      "id" : 1774,
      "description" : "알루미늄 케이스는 가볍고 100% 재활용된 항공우주 등급의 합금으로 만들어집니다.\n\n앞뒤가 다른 두 개의 나일론 레이어로 짜여 부드럽고 통기성이 좋은 스포츠 루프. 구조는 후크 앤드 루프 패스너 타입이라 빠르고 간편하게 길이 조절을 할 수 있습니다.\n\n",
      "vendor_id" : 11,
      "issued_at" : "2023-02-03T00:00:00",
      "created_at" : "2023-02-03T00:00:00",
      "discounted_price" : 0,
      "vendorName" : "borysarang",
      "stock" : 1,
      "price" : 359000,
      "thumbnail" : "https://s3.ap-northeast-2.amazonaws.com/media.yagom-academy.kr/training-resources/11/20230203/b6b11c1da3bd11edbe108f62c5ead27f_thumb.png",
      "currency" : "KRW",
      "name" : " Apple Watch SE",
      "bargain_price" : 359000
    },
    {
      "id" : 1773,
      "description" : "32GB 통합 메모리\n512GB SSD 저장 장치\n전면: USB-C 포트 2개, SDXC 카드 슬롯 1개\n후면: Thunderbolt 4 포트 4개, USB-A 포트 2개, HDMI 포트 1개, 10Gb 이더넷 포트 1개, 3.5mm 헤드폰 잭 1개",
      "vendor_id" : 11,
      "issued_at" : "2023-02-03T00:00:00",
      "created_at" : "2023-02-03T00:00:00",
      "discounted_price" : 0,
      "vendorName" : "borysarang",
      "stock" : 1,
      "price" : 2690000,
      "thumbnail" : "https://s3.ap-northeast-2.amazonaws.com/media.yagom-academy.kr/training-resources/11/20230203/5db6a30aa3bd11edbe1035a52fc5486b_thumb.png",
      "currency" : "KRW",
      "name" : "Mac Studio",
      "bargain_price" : 2690000
    },
    {
      "id" : 1772,
      "description" : "17.0cm 또는 15.4cm\n\nSuper Retina XDR 디스플레이각주\nProMotion 기술\n상시표시형 디스플레이",
      "vendor_id" : 11,
      "issued_at" : "2023-02-03T00:00:00",
      "created_at" : "2023-02-03T00:00:00",
      "discounted_price" : 0,
      "vendorName" : "borysarang",
      "stock" : 1,
      "price" : 1550000,
      "thumbnail" : "https://s3.ap-northeast-2.amazonaws.com/media.yagom-academy.kr/training-resources/11/20230203/3bc33b07a3bd11edbe10051d3aa6cb1d_thumb.png",
      "currency" : "KRW",
      "name" : "iPhone14",
      "bargain_price" : 1550000
    },
    {
      "id" : 1771,
      "description" : "8코어 CPU\n10코어 GPU\n8GB 통합 메모리\n256GB SSD 저장 장치",
      "vendor_id" : 11,
      "issued_at" : "2023-02-03T00:00:00",
      "created_at" : "2023-02-03T00:00:00",
      "discounted_price" : 0,
      "vendorName" : "borysarang",
      "stock" : 1,
      "price" : 850000,
      "thumbnail" : "https://s3.ap-northeast-2.amazonaws.com/media.yagom-academy.kr/training-resources/11/20230203/12ec84c4a3bd11edbe10d93872b7569b_thumb.png",
      "currency" : "KRW",
      "name" : "Mac mini",
      "bargain_price" : 850000
    },
    {
      "id" : 1769,
      "description" : "256GB 저장 장치\n8GB 통합 메모리\n24형 4.5K Retina 디스플레이\nThunderbolt/USB 4 포트 2개",
      "vendor_id" : 11,
      "issued_at" : "2023-02-03T00:00:00",
      "created_at" : "2023-02-03T00:00:00",
      "discounted_price" : 0,
      "vendorName" : "borysarang",
      "stock" : 1,
      "price" : 1790000,
      "thumbnail" : "https://s3.ap-northeast-2.amazonaws.com/media.yagom-academy.kr/training-resources/11/20230203/9a9c58fea3bc11edbe105d7c65c9dcc9_thumb.png",
      "currency" : "KRW",
      "name" : "iMac 24",
      "bargain_price" : 1790000
    },
    {
      "id" : 1768,
      "description" : "16코어 Neural Engine\nTrue Tone을 갖춘 34.5cm Liquid Retina 디스플레이\n1080p FaceTime HD 카메라\nMagSafe 3 충전 포트\nThunderbolt/USB 4 포트 2개\nTouch ID 탑재형 Magic Keyboard\nForce Touch 트랙패드\n30W USB-C 전원 어댑터",
      "vendor_id" : 11,
      "issued_at" : "2023-02-03T00:00:00",
      "created_at" : "2023-02-03T00:00:00",
      "discounted_price" : 0,
      "vendorName" : "borysarang",
      "stock" : 2,
      "price" : 1390000,
      "thumbnail" : "https://s3.ap-northeast-2.amazonaws.com/media.yagom-academy.kr/training-resources/11/20230203/586fe32ba3bc11edbe10e765c5d8383d_thumb.png",
      "currency" : "KRW",
      "name" : "MacBook Air(M1)",
      "bargain_price" : 1390000
    },
    {
      "id" : 1765,
      "description" : "123",
      "vendor_id" : 37,
      "issued_at" : "2023-02-02T00:00:00",
      "created_at" : "2023-02-02T00:00:00",
      "discounted_price" : 12312,
      "vendorName" : "aejongg",
      "stock" : 3123,
      "price" : 123,
      "thumbnail" : "https://s3.ap-northeast-2.amazonaws.com/media.yagom-academy.kr/training-resources/37/20230202/6883b392a2c211edbe10ab325028fb75_thumb.jpeg",
      "currency" : "KRW",
      "name" : "123",
      "bargain_price" : -12189
    },
    {
      "id" : 1764,
      "description" : "1",
      "vendor_id" : 58,
      "issued_at" : "2023-02-02T00:00:00",
      "created_at" : "2023-02-02T00:00:00",
      "discounted_price" : 0,
      "vendorName" : "derrick",
      "stock" : 12,
      "price" : 12,
      "thumbnail" : "https://s3.ap-northeast-2.amazonaws.com/media.yagom-academy.kr/training-resources/58/20230202/9e3e51cfa29e11edbe10a5e4d342b2e3_thumb.png",
      "currency" : "KRW",
      "name" : "Qwewewe",
      "bargain_price" : 12
    },
    {
      "id" : 1763,
      "description" : "1",
      "vendor_id" : 58,
      "issued_at" : "2023-02-02T00:00:00",
      "created_at" : "2023-02-02T00:00:00",
      "discounted_price" : 0,
      "vendorName" : "derrick",
      "stock" : 1,
      "price" : 123123,
      "thumbnail" : "https://s3.ap-northeast-2.amazonaws.com/media.yagom-academy.kr/training-resources/58/20230202/58d108dca29e11edbe10c919aac00fb1_thumb.png",
      "currency" : "KRW",
      "name" : "134rwerew",
      "bargain_price" : 123123
    }
  ],
  "itemsPerPage" : 10,
  "limit" : 10,
  "hasPrev" : false
}
